,0,1,2,3,4,5,6,7,8,9,10
SeniorCitizen,-0.2678065304239913,0.02787838245488324,-0.4705357302131878,-0.3073924723030633,0.6801587993826437,-0.046184779937985324,-0.09353989907333689,0.3055016113384295,0.20949633382886285,0.0246164033877125,0.018846121004995036
Partner,0.09102954229855537,0.5925728969504347,0.4069238601327022,-0.44844738036547205,0.20760348088364508,-0.03611574024994115,0.003884432420395714,0.09991637101014607,-0.4082687248735152,0.2290039686449295,-0.0032444787677788096
Dependents,0.2582462527626313,0.35482627364217534,0.6736014294847302,-0.36222271519713334,0.0010521448841238896,-0.10853467236734682,0.126500419524254,0.024798055122213513,0.3498314015168336,-0.2679551514354312,0.007741091968444123
tenure,0.0718968397218775,0.9023584168326656,-0.11894436377958097,0.12442421715957253,-0.037404518645815524,0.1348264580259172,-0.11157431190139362,-0.10502845580367688,0.1391652010279014,0.14851317137535608,-0.043629605009388
MultipleLines,-0.32571530488923556,0.30774270820759503,0.16178030730278867,0.44449214211435595,0.51988683418487,0.28113422358758205,0.315771469902323,-0.23739714853858518,-0.1254609167101745,-0.22777523241424044,0.004525616438626509
InternetService,-0.735999018630412,0.019559633848764104,0.3603298637240496,0.2792775054710485,0.02531292384678188,0.06878563926991797,0.009383716952130373,0.048409225946108234,0.22505090630489555,0.369925233259745,0.033018522496958115
OnlineSecurity,0.8996030426464773,0.1062333793153415,-0.05084594437292512,0.0391522960072141,0.018135194379377655,0.057074481455272254,0.01668007069461917,-0.01629982257700035,0.07227903119695012,0.09366325965568781,0.06737507187297202
OnlineBackup,0.8628071393331344,0.13445918241659793,-0.16835575209162268,-0.026760508933367417,0.042368034115274206,0.06264466082397084,0.049742271208196784,-0.06490254207236008,0.012303220943117855,-0.019643359516429065,-0.384328006599513
DeviceProtection,0.8643221516689887,0.1525661508139398,-0.16540584816384538,0.004177652834954241,0.03777328519537256,0.04466735987456969,0.06039926373333003,-0.058446998434796574,-0.04080297815833966,-0.0414953873784065,0.305511031490964
TechSupport,0.8949925460363709,0.09619051709692975,-0.06711117511300813,0.062226795172362445,0.002322413187808428,0.04152855057167712,0.06742878139639844,-0.05105047263709836,0.0719369134889957,0.10148472874517121,0.09855918191504154
Contract,0.14850173037650216,0.3252328934574777,0.025691137073066184,0.38670376327767164,0.14337093568021098,-0.8271317823781145,-0.11725809854392477,-0.04396387496350651,-0.033848999784714395,-0.021226641050817424,-0.010345141740727828
PaperlessBilling,-0.4160944591927519,0.057188304431079064,-0.32345455958719144,-0.30403164225757967,-0.09867907046009684,-0.24226945829678462,0.649195142467173,-0.33478235914970217,0.05963576653927602,0.14443621091128983,0.0033383119260438306
PaymentMethod,-0.08014514604112721,0.5045409629192412,-0.1480553024811596,0.2234940443204189,-0.2629736272763286,0.015827976037624605,0.3786746483873216,0.6678647730399492,-0.04411939072540279,-0.0785008808578489,-0.005223259061518822
MonthlyCharges,-0.7311128104749797,0.36947249657681563,-0.23931069208492778,-0.21270720847337202,-0.19875008885150833,-0.041865913028467254,-0.20535362594916953,-0.09752223987821876,-0.08481984181062824,-0.24446583974449537,0.06015655068460185
TotalCharges,-0.27121177866835783,0.8547864705104518,-0.21471998583422808,-0.0016749958020984804,-0.13754442480545986,0.13655765901331285,-0.2101055040893482,-0.1788086601364514,0.0839505847078104,0.006284627246435895,0.009349827448130565
